classes/01_full_adder/simulation/qsim/Somador_Completin.msim.vcd
$comment
	File created using the following command:
		vcd file Somador_Completin.msim.vcd -direction
$end
$date
	Tue Apr 09 08:47:08 2019
$end
$version
	ModelSim Version 10.5b
$end
$timescale
	1ps
$end

$scope module somador_completin_vhd_vec_tst $end
$var wire 1 ! A [3] $end
$var wire 1 " A [2] $end
$var wire 1 # A [1] $end
$var wire 1 $ A [0] $end
$var wire 1 % B [3] $end
$var wire 1 & B [2] $end
$var wire 1 ' B [1] $end
$var wire 1 ( B [0] $end
$var wire 1 ) S [4] $end
$var wire 1 * S [3] $end
$var wire 1 + S [2] $end
$var wire 1 , S [1] $end
$var wire 1 - S [0] $end

$scope module i1 $end
$var wire 1 . gnd $end
$var wire 1 / vcc $end
$var wire 1 0 unknown $end
$var wire 1 1 devoe $end
$var wire 1 2 devclrn $end
$var wire 1 3 devpor $end
$var wire 1 4 ww_devoe $end
$var wire 1 5 ww_devclrn $end
$var wire 1 6 ww_devpor $end
$var wire 1 7 ww_S [4] $end
$var wire 1 8 ww_S [3] $end
$var wire 1 9 ww_S [2] $end
$var wire 1 : ww_S [1] $end
$var wire 1 ; ww_S [0] $end
$var wire 1 < ww_A [3] $end
$var wire 1 = ww_A [2] $end
$var wire 1 > ww_A [1] $end
$var wire 1 ? ww_A [0] $end
$var wire 1 @ ww_B [3] $end
$var wire 1 A ww_B [2] $end
$var wire 1 B ww_B [1] $end
$var wire 1 C ww_B [0] $end
$var wire 1 D \S[4]~output_o\ $end
$var wire 1 E \S[3]~output_o\ $end
$var wire 1 F \S[2]~output_o\ $end
$var wire 1 G \S[1]~output_o\ $end
$var wire 1 H \S[0]~output_o\ $end
$var wire 1 I \B[3]~input_o\ $end
$var wire 1 J \A[3]~input_o\ $end
$var wire 1 K \B[2]~input_o\ $end
$var wire 1 L \A[2]~input_o\ $end
$var wire 1 M \A[0]~input_o\ $end
$var wire 1 N \A[1]~input_o\ $end
$var wire 1 O \B[0]~input_o\ $end
$var wire 1 P \B[1]~input_o\ $end
$var wire 1 Q \inst|inst2|Ts~0_combout\ $end
$var wire 1 R \inst|inst3|Ts~0_combout\ $end
$var wire 1 S \inst|inst4|Ts~0_combout\ $end
$var wire 1 T \inst|inst4|S~combout\ $end
$var wire 1 U \inst|inst3|S~0_combout\ $end
$var wire 1 V \inst|inst2|S~0_combout\ $end
$var wire 1 W \inst|inst|S~combout\ $end
$upscope $end
$upscope $end
$enddefinitions $end
#0
$dumpvars
0.
1/
x0
11
12
13
14
15
16
0D
0E
0F
0G
0H
xI
xJ
xK
xL
xM
xN
xO
xP
xQ
xR
xS
xT
xU
xV
xW
0!
0"
0#
0$
0%
0&
0'
0(
07
08
09
0:
0;
0<
0=
0>
0?
0@
0A
0B
0C
0)
0*
0+
0,
0-
$end
#746
0M
#776
0P
#786
0O
#796
0J
0L
0N
#806
0I
#816
0K
#3601
xG
x:
x,
#3629
xD
x7
x)
#3635
xE
x8
x*
#3642
xF
x9
x+
#3663
xH
x;
x-
#4264
0Q
#4265
0V
#4424
0R
#4590
0S
#4612
0W
#4646
0U
#4804
0T
#7829
0G
0:
0,
#8183
0D
07
0)
#8245
0H
0;
0-
#8254
0F
09
0+
#8405
0E
08
0*
#50000
1$
1(
1?
1C
#50640
1M
#50680
1O
#54049
1W
#54238
1V
#54250
0W
#57712
1H
1;
1-
#57839
1G
1:
1,
#57883
0H
0;
0-
#100000
0$
0(
1#
1'
0?
1>
0C
1B
#100670
1P
#100690
1N
#100746
0M
#100786
0O
#103848
1Q
#103893
0V
#103923
1V
#104219
1U
#104401
0V
#104409
1W
#104612
0W
#107457
0G
0:
0,
#107524
1G
1:
1,
#107861
1F
19
1+
#107965
0G
0:
0,
#108072
1H
1;
1-
#108245
0H
0;
0-
#150000
1$
1(
1?
1C
#150640
1M
#150680
1O
#154049
1W
#154238
1V
#154250
0W
#157712
1H
1;
1-
#157839
1G
1:
1,
#157883
0H
0;
0-
#200000
0$
0(
0#
0'
1"
1&
0?
0>
1=
0C
0B
1A
#200690
1L
#200710
1K
#200746
0M
#200776
0P
#200786
0O
#200796
0N
#203886
1R
#203913
0U
#204075
1U
#204255
1T
#204264
0Q
#204265
0V
#204409
1W
#204612
0W
#204646
0U
#207521
0F
09
0+
#207717
1F
19
1+
#207829
0G
0:
0,
#207890
1E
18
1*
#208072
1H
1;
1-
#208245
0H
0;
0-
#208254
0F
09
0+
#250000
1$
1(
1?
1C
#250640
1M
#250680
1O
#254049
1W
#254238
1V
#254250
0W
#257712
1H
1;
1-
#257839
1G
1:
1,
#257883
0H
0;
0-
#300000
0$
0(
1#
1'
0?
1>
0C
1B
#300670
1P
#300690
1N
#300746
0M
#300786
0O
#303848
1Q
#303893
0V
#303923
1V
#304219
1U
#304401
0V
#304409
1W
#304612
0W
#307457
0G
0:
0,
#307524
1G
1:
1,
#307861
1F
19
1+
#307965
0G
0:
0,
#308072
1H
1;
1-
#308245
0H
0;
0-
#350000
1$
1(
1?
1C
#350640
1M
#350680
1O
#354049
1W
#354238
1V
#354250
0W
#357712
1H
1;
1-
#357839
1G
1:
1,
#357883
0H
0;
0-
#400000
0$
0(
0#
0'
0"
0&
1!
1%
0?
0>
0=
1<
0C
0B
0A
1@
#400690
1J
#400700
1I
#400746
0M
#400776
0P
#400786
0O
#400796
0L
0N
#400816
0K
#404029
0T
#404037
1S
#404264
0Q
#404265
0V
#404270
1T
#404294
0U
#404409
1W
#404424
0R
#404430
1U
#404612
0W
#404646
0U
#404804
0T
#407630
0E
08
0*
#407666
1D
17
1)
#407829
0G
0:
0,
#407902
0F
09
0+
#407905
1E
18
1*
#408072
1H
1F
1;
19
1-
1+
#408245
0H
0;
0-
#408254
0F
09
0+
#408405
0E
08
0*
#450000
1$
1(
1?
1C
#450640
1M
#450680
1O
#454049
1W
#454238
1V
#454250
0W
#457712
1H
1;
1-
#457839
1G
1:
1,
#457883
0H
0;
0-
#500000
0$
0(
1#
1'
0?
1>
0C
1B
#500670
1P
#500690
1N
#500746
0M
#500786
0O
#503848
1Q
#503893
0V
#503923
1V
#504219
1U
#504401
0V
#504409
1W
#504612
0W
#507457
0G
0:
0,
#507524
1G
1:
1,
#507861
1F
19
1+
#507965
0G
0:
0,
#508072
1H
1;
1-
#508245
0H
0;
0-
#550000
1$
1(
1?
1C
#550640
1M
#550680
1O
#554049
1W
#554238
1V
#554250
0W
#557712
1H
1;
1-
#557839
1G
1:
1,
#557883
0H
0;
0-
#600000
0$
0(
0#
0'
1"
1&
0?
0>
1=
0C
0B
1A
#600690
1L
#600710
1K
#600746
0M
#600776
0P
#600786
0O
#600796
0N
#603886
1R
#603913
0U
#604075
1U
#604255
1T
#604264
0Q
#604265
0V
#604409
1W
#604612
0W
#604646
0U
#607521
0F
09
0+
#607717
1F
19
1+
#607829
0G
0:
0,
#607890
1E
18
1*
#608072
1H
1;
1-
#608245
0H
0;
0-
#608254
0F
09
0+
#650000
1$
1(
1?
1C
#650640
1M
#650680
1O
#654049
1W
#654238
1V
#654250
0W
#657712
1H
1;
1-
#657839
1G
1:
1,
#657883
0H
0;
0-
#700000
0$
0(
1#
1'
0?
1>
0C
1B
#700670
1P
#700690
1N
#700746
0M
#700786
0O
#703848
1Q
#703893
0V
#703923
1V
#704219
1U
#704401
0V
#704409
1W
#704612
0W
#707457
0G
0:
0,
#707524
1G
1:
1,
#707861
1F
19
1+
#707965
0G
0:
0,
#708072
1H
1;
1-
#708245
0H
0;
0-
#750000
1$
1(
1?
1C
#750640
1M
#750680
1O
#754049
1W
#754238
1V
#754250
0W
#757712
1H
1;
1-
#757839
1G
1:
1,
#757883
0H
0;
0-
#800000
0$
0(
0#
0'
0"
0&
0!
0%
0?
0>
0=
0<
0C
0B
0A
0@
#800746
0M
#800776
0P
#800786
0O
#800796
0J
0L
0N
#800806
0I
#800816
0K
#804264
0Q
#804265
0V
#804294
0U
#804384
0T
#804409
1W
#804424
0R
#804430
1U
#804590
0S
#804612
0W
#804622
1T
#804646
0U
#804804
0T
#807829
0G
0:
0,
#807902
0F
09
0+
#807985
0E
08
0*
#808072
1H
1F
1;
19
1-
1+
#808183
0D
07
0)
#808245
0H
0;
0-
#808254
0F
09
0+
#808257
1E
18
1*
#808405
0E
08
0*
#850000
1$
1(
1?
1C
#850640
1M
#850680
1O
#854049
1W
#854238
1V
#854250
0W
#857712
1H
1;
1-
#857839
1G
1:
1,
#857883
0H
0;
0-
#900000
0$
0(
1#
1'
0?
1>
0C
1B
#900670
1P
#900690
1N
#900746
0M
#900786
0O
#903848
1Q
#903893
0V
#903923
1V
#904219
1U
#904401
0V
#904409
1W
#904612
0W
#907457
0G
0:
0,
#907524
1G
1:
1,
#907861
1F
19
1+
#907965
0G
0:
0,
#908072
1H
1;
1-
#908245
0H
0;
0-
#950000
1$
1(
1?
1C
#950640
1M
#950680
1O
#954049
1W
#954238
1V
#954250
0W
#957712
1H
1;
1-
#957839
1G
1:
1,
#957883
0H
0;
0-
