classes/02_multiplier/simulation/qsim/Multiplier.msim.vcd
$comment
	File created using the following command:
		vcd file Multiplier.msim.vcd -direction
$end
$date
	Tue Apr 23 09:35:55 2019
$end
$version
	ModelSim Version 10.5b
$end
$timescale
	1ps
$end

$scope module multiplier_vhd_vec_tst $end
$var wire 1 ! A [3] $end
$var wire 1 " A [2] $end
$var wire 1 # A [1] $end
$var wire 1 $ A [0] $end
$var wire 1 % B [3] $end
$var wire 1 & B [2] $end
$var wire 1 ' B [1] $end
$var wire 1 ( B [0] $end
$var wire 1 ) EN $end
$var wire 1 * S [7] $end
$var wire 1 + S [6] $end
$var wire 1 , S [5] $end
$var wire 1 - S [4] $end
$var wire 1 . S [3] $end
$var wire 1 / S [2] $end
$var wire 1 0 S [1] $end
$var wire 1 1 S [0] $end
$var wire 1 2 St $end

$scope module i1 $end
$var wire 1 3 gnd $end
$var wire 1 4 vcc $end
$var wire 1 5 unknown $end
$var wire 1 6 devoe $end
$var wire 1 7 devclrn $end
$var wire 1 8 devpor $end
$var wire 1 9 ww_devoe $end
$var wire 1 : ww_devclrn $end
$var wire 1 ; ww_devpor $end
$var wire 1 < ww_S [7] $end
$var wire 1 = ww_S [6] $end
$var wire 1 > ww_S [5] $end
$var wire 1 ? ww_S [4] $end
$var wire 1 @ ww_S [3] $end
$var wire 1 A ww_S [2] $end
$var wire 1 B ww_S [1] $end
$var wire 1 C ww_S [0] $end
$var wire 1 D ww_A [3] $end
$var wire 1 E ww_A [2] $end
$var wire 1 F ww_A [1] $end
$var wire 1 G ww_A [0] $end
$var wire 1 H ww_B [3] $end
$var wire 1 I ww_B [2] $end
$var wire 1 J ww_B [1] $end
$var wire 1 K ww_B [0] $end
$var wire 1 L ww_EN $end
$var wire 1 M ww_St $end
$var wire 1 N \S[7]~output_o\ $end
$var wire 1 O \S[6]~output_o\ $end
$var wire 1 P \S[5]~output_o\ $end
$var wire 1 Q \S[4]~output_o\ $end
$var wire 1 R \S[3]~output_o\ $end
$var wire 1 S \S[2]~output_o\ $end
$var wire 1 T \S[1]~output_o\ $end
$var wire 1 U \S[0]~output_o\ $end
$var wire 1 V \EN~input_o\ $end
$var wire 1 W \A[0]~input_o\ $end
$var wire 1 X \A[3]~input_o\ $end
$var wire 1 Y \B[2]~input_o\ $end
$var wire 1 Z \inst|inst|inst14|S~0_combout\ $end
$var wire 1 [ \A[2]~input_o\ $end
$var wire 1 \ \A[1]~input_o\ $end
$var wire 1 ] \inst|inst11|Ts~0_combout\ $end
$var wire 1 ^ \B[3]~input_o\ $end
$var wire 1 _ \inst|inst8|Ts~0_combout\ $end
$var wire 1 ` \inst|inst8|Ts~1_combout\ $end
$var wire 1 a \inst|inst11|Ts~1_combout\ $end
$var wire 1 b \inst|inst|inst6|S~0_combout\ $end
$var wire 1 c \B[1]~input_o\ $end
$var wire 1 d \inst|inst|inst9|S~combout\ $end
$var wire 1 e \inst|inst6|S~0_combout\ $end
$var wire 1 f \inst|inst|inst4|S~0_combout\ $end
$var wire 1 g \B[0]~input_o\ $end
$var wire 1 h \inst|inst|inst5|S~combout\ $end
$var wire 1 i \inst|inst2|Ts~combout\ $end
$var wire 1 j \inst|inst|inst3|S~0_combout\ $end
$var wire 1 k \inst|inst3|Ts~0_combout\ $end
$var wire 1 l \inst|inst|inst8|S~combout\ $end
$var wire 1 m \inst|inst4|Ts~combout\ $end
$var wire 1 n \inst|inst7|Ts~0_combout\ $end
$var wire 1 o \inst|inst|inst10|S~0_combout\ $end
$var wire 1 p \inst|inst8|S~0_combout\ $end
$var wire 1 q \inst|inst6|Ts~0_combout\ $end
$var wire 1 r \inst|inst|inst12|S~combout\ $end
$var wire 1 s \inst|inst5|Ts~combout\ $end
$var wire 1 t \inst|inst9|S~combout\ $end
$var wire 1 u \inst|inst10|Ts~combout\ $end
$var wire 1 v \inst|inst9|Ts~0_combout\ $end
$var wire 1 w \inst|inst11|S~0_combout\ $end
$var wire 1 x \inst|inst12|Ts~0_combout\ $end
$var wire 1 y \inst|inst|inst15|S~0_combout\ $end
$var wire 1 z \inst|inst13|Ts~0_combout\ $end
$var wire 1 { \St~input_o\ $end
$var wire 1 | \inst6|S7~combout\ $end
$var wire 1 } \inst|inst13|S~combout\ $end
$var wire 1 ~ \inst6|S6~combout\ $end
$var wire 1 !! \inst|inst12|S~0_combout\ $end
$var wire 1 "! \inst6|S5~combout\ $end
$var wire 1 #! \inst6|S4~combout\ $end
$var wire 1 $! \inst|inst7|S~combout\ $end
$var wire 1 %! \inst6|S3~combout\ $end
$var wire 1 &! \inst|inst3|S~combout\ $end
$var wire 1 '! \inst6|S2~combout\ $end
$var wire 1 (! \inst6|S0~0_combout\ $end
$var wire 1 )! \inst6|S0~1_combout\ $end
$var wire 1 *! \inst6|S1~0_combout\ $end
$var wire 1 +! \inst6|ALT_INV_S2~combout\ $end
$var wire 1 ,! \inst6|ALT_INV_S3~combout\ $end
$var wire 1 -! \inst6|ALT_INV_S4~combout\ $end
$upscope $end
$upscope $end
$enddefinitions $end
#0
$dumpvars
1)
02
03
14
x5
16
17
18
19
1:
1;
1L
0M
0N
0O
0P
0Q
0R
0S
0T
0U
xV
xW
xX
xY
xZ
x[
x\
x]
x^
x_
x`
xa
xb
xc
xd
xe
xf
xg
xh
xi
xj
xk
xl
xm
xn
xo
xp
xq
xr
xs
xt
xu
xv
xw
xx
xy
xz
x{
x|
x}
x~
x!!
x"!
x#!
x$!
x%!
x&!
x'!
x(!
x)!
x*!
x+!
x,!
x-!
0!
0"
1#
0$
1%
0&
1'
0(
0<
0=
0>
0?
0@
0A
0B
0C
0D
0E
1F
0G
1H
0I
1J
0K
0*
0+
0,
0-
0.
0/
00
01
$end
#680
1V
#690
1\
#700
1^
1c
#776
0{
#796
0W
0X
#806
0Y
0[
0g
#4254
1o
#4388
0*!
#4477
0y
#4500
1f
#4509
0l
#4510
0h
#4659
0r
#4692
0d
#4712
0_
#4714
0Z
#4790
0`
#4800
0(!
#4801
1s
#4832
1i
#4865
0j
#4912
1p
#4997
1m
#4998
0b
#5109
0]
#5388
0w
#5396
0&!
#5400
0k
#5744
0a
#5885
0q
#5907
0e
#5946
0!!
#6002
0)!
#6094
0n
#6244
xP
x>
x,
#6577
0v
#6616
0t
#6627
0u
#6774
0'!
1+!
#6810
1$!
#7113
0z
#7261
0x
#7314
0"!
#7337
0#!
1-!
#7469
1%!
0,!
#7815
0|
#8088
xR
x@
x.
#8496
0}
#8910
xS
xA
x/
#9003
xT
xB
x0
#9031
xN
x<
x*
#9202
0~
#9423
xQ
x?
x-
#9668
xO
x=
x+
#10426
xU
xC
x1
#13516
0P
0>
0,
#14544
0U
0C
01
#14878
0T
0B
00
#15499
0R
0@
0.
#15662
1S
1A
1/
#16649
1Q
1?
1-
#16692
0N
0<
0*
#18678
0O
0=
0+
#100000
1$
1(
1G
1K
#100690
1W
#100700
1g
#104154
1(!
#104446
0(!
#104464
1*!
#104651
0i
#104657
1b
#105367
1k
#105371
1&!
#105374
1)!
#105544
1e
#105648
0)!
#106056
0$!
#106438
1$!
#106443
1n
#106762
1'!
0+!
#106764
0%!
1,!
#106945
1#!
0-!
#106946
1u
#107097
1%!
0,!
#107635
1"!
#113792
1P
1>
1,
#114377
1T
1B
10
#114524
0T
0B
00
#114852
1R
1@
1.
#114890
1U
1C
11
#115127
0R
0@
0.
#115714
0S
0A
0/
#116410
0Q
0?
0-
#200000
0$
0(
1"
0#
1&
0'
0G
0F
1E
0K
0J
1I
#200700
1Y
1[
#200796
0\
0W
#200806
0c
0g
#204340
1w
#204341
1d
#204343
1h
#204373
1_
#204388
0*!
#204479
0p
#204510
0h
#204522
1j
#204524
0f
#204767
0o
#204768
0_
#204788
0d
#204832
1i
#204892
0e
#204904
1x
#204906
1!!
#204907
1q
#204991
0j
#204998
0b
#205115
0q
#205120
1`
1e
#205347
0e
#205362
1t
#205382
0k
#205415
1k
#205422
0&!
#205431
1&!
#205461
1p
#205526
0k
#205528
0`
#205533
0&!
#205534
1e
#205538
1&!
#205583
0"!
#205598
0t
#205717
0u
#205803
0$!
#205809
0n
#205815
0!!
#205818
0x
#205844
1t
#205907
0e
#205998
1u
#206014
1$!
#206019
1n
#206044
0#!
1-!
#206134
1a
#206154
1}
#206199
0u
#206220
0n
#206243
1x
#206255
1!!
#206308
1#!
0-!
#206321
0t
#206341
0#!
1-!
#206436
0$!
#206449
0x
#206511
0%!
1,!
#206531
0a
#206664
1x
#206673
1%!
0,!
#206687
1"!
#206759
1#!
0-!
#206800
0'!
1+!
#206810
1$!
#206811
1~
#206822
1'!
0+!
#206911
0'!
1+!
#206929
1'!
0+!
#206931
0x
#207042
0#!
1-!
#207053
0}
#207144
0%!
1,!
#207469
1%!
0,!
#207490
1z
#207680
0z
#207690
1}
#207759
0~
#208149
1|
#208166
0}
#208347
1~
#208382
0|
#208872
0~
#211785
0P
0>
0,
#212844
1P
1>
1,
#214544
0U
0C
01
#214599
1R
1@
1.
#214703
0R
0@
0.
#215232
1R
1@
1.
#215356
1Q
1?
1-
#215499
0R
0@
0.
#215688
1S
1A
1/
#215774
0S
0A
0/
#215799
1S
1A
1/
#215881
0S
0A
0/
#216224
0Q
0?
0-
#216354
1Q
1?
1-
#216479
1O
1=
1+
#217180
1N
1<
1*
#217235
0O
0=
0+
#217259
0N
0<
0*
#218015
1O
1=
1+
#218348
0O
0=
0+
#300000
1$
1(
1G
1K
#300690
1W
#300700
1g
#304185
1h
#304464
1*!
#304652
1j
#304657
1b
#305089
0&!
#305192
1&!
#305195
1k
#305544
1e
#305884
0$!
#306438
1$!
#306443
1n
#306467
0'!
1+!
#306583
1'!
0+!
#306592
0%!
1,!
#306945
1#!
0-!
#306946
1u
#307097
1%!
0,!
#307612
1x
#307628
0"!
#308862
1}
#309519
1~
#313830
0P
0>
0,
#314680
1R
1@
1.
#314890
1U
1C
11
#315127
0R
0@
0.
#315355
1S
1A
1/
#315535
0S
0A
0/
#316410
0Q
0?
0-
#319187
1O
1=
1+
#400000
0$
0(
1#
1'
0G
1F
0K
1J
#400690
1\
#400700
1c
#400796
0W
#400806
0g
#404154
1(!
#404244
0(!
#404388
0*!
#404400
1o
#404401
1f
#404412
1_
#404448
1d
#404494
1(!
#404510
0h
#404800
0(!
#404991
0j
#404998
0b
#404999
0e
#405014
1q
#405065
0p
#405154
0q
#405159
1`
1e
#405250
0k
#405286
0&!
#405374
1)!
#405420
1&!
#405446
0)!
#405522
0&!
#405680
1v
#405703
1t
#405714
1)!
#405846
0v
#405854
0!!
#405857
0x
#405885
0t
#405898
1q
#405907
0e
#405910
0$!
#405916
0n
#405948
1t
#405977
1$!
#406002
0)!
#406058
0u
#406061
0$!
#406173
1a
#406285
1u
#406303
0u
#406367
1x
#406384
1"!
#406385
0#!
1-!
#406455
1#!
0-!
#406530
0x
#406573
0"!
#406585
1"!
#406589
0t
#406606
0#!
1-!
#406618
0%!
1,!
#406619
1#!
0-!
#406636
1%!
0,!
#406664
0'!
1+!
#406745
0"!
#406769
0%!
1,!
#406810
1$!
#406811
1'!
0+!
#406900
0'!
1+!
#406974
1"!
#406990
0"!
#407092
0}
#407310
0#!
1-!
#407469
1%!
0,!
#407590
1}
#407611
0}
#407614
1z
#407761
0z
#407771
1}
#407798
0~
#408247
1~
#408273
1|
#408317
0~
#408428
1~
#408463
0|
#412541
1P
1>
1,
#412947
0P
0>
0,
#413131
1P
1>
1,
#413192
0P
0>
0,
#414544
0U
0C
01
#414717
1T
1B
10
#414857
1R
1@
1.
#414878
0T
0B
00
#415499
0R
0@
0.
#415552
1S
1A
1/
#415697
1Q
1?
1-
#415763
0S
0A
0/
#415788
1S
1A
1/
#416084
0Q
0?
0-
#416622
1Q
1?
1-
#417274
0O
0=
0+
#417304
1N
1<
1*
#417340
0N
0<
0*
#418096
1O
1=
1+
#500000
1$
1(
1G
1K
#500690
1W
#500700
1g
#504154
1(!
#504185
1h
#504446
0(!
#504451
0s
#504464
1*!
#504647
0m
#504651
0i
#504652
1j
#504657
1b
#504848
1v
1t
#505063
1k
#505087
1&!
#505176
0&!
#505179
0k
#505218
0$!
#505367
1k
#505371
1&!
#505374
1)!
#505519
1#!
0-!
#505544
1e
#505552
1"!
#505648
0)!
#505731
1n
#505750
1$!
#505873
0n
#505908
0$!
#505926
0%!
1,!
#506035
1n
#506054
1$!
#506226
0#!
1-!
#506409
1%!
0,!
#506412
1#!
0-!
#506446
0$!
#506451
0n
#506478
1'!
0+!
#506530
0#!
1-!
#506554
0'!
1+!
#506616
0%!
1,!
#506713
1%!
0,!
#506762
1'!
0+!
#506990
1#!
0-!
#507154
0%!
1,!
#511709
1P
1>
1,
#514014
1R
1@
1.
#514377
1T
1B
10
#514439
0R
0@
0.
#514524
0T
0B
00
#514890
1U
1C
11
#514984
0Q
0?
0-
#515242
1R
1@
1.
#515430
0S
0A
0/
#515442
1S
1A
1/
#515538
1Q
1?
1-
#515714
0S
0A
0/
#516455
0Q
0?
0-
#600000
0$
0(
0#
0'
0"
0&
1!
0%
0G
0F
0E
1D
0K
0J
0I
0H
#600690
1X
#600796
0\
0W
#600806
0^
0Y
0c
0g
0[
#604165
1y
#604221
0a
#604320
1r
1l
#604388
0*!
#604447
0y
#604455
1s
#604461
0`
#604478
1Z
#604484
0b
#604488
0o
#604509
0l
#604510
0h
#604516
0w
#604524
0f
#604692
0d
#604712
0_
#604714
1p
0Z
#604790
0r
#604809
0v
0t
#604832
1i
#604850
1m
#604865
0j
#604994
1t
1v
#605027
1$!
#605032
1n
#605112
1w
#605189
0p
#605224
0$!
#605229
0n
#605249
0}
#605263
1z
#605382
0k
#605388
0w
#605423
1n
#605425
1$!
#605472
0e
#605473
0q
#605514
0z
#605527
0#!
1-!
#605550
0"!
#605676
1x
#605678
1!!
#605686
1%!
0,!
#605698
1"!
#605768
1#!
0-!
#605918
0#!
1-!
#605922
1|
#605932
0%!
1,!
#605943
0x
#605946
0!!
#605955
0~
#606076
0n
#606080
0v
0t
#606084
1%!
0,!
#606111
0$!
#606202
1t
#606216
0|
#606355
0"!
#606375
1$!
#606480
1u
#606557
0u
#606615
1#!
0-!
#606657
1"!
#606801
0#!
1-!
#606819
0%!
1,!
#606821
0"!
#606873
1#!
0-!
#606926
1}
#607034
1%!
0,!
#607169
1"!
#607178
0}
#607244
0"!
#607583
1~
#607884
0~
#611752
0P
0>
0,
#611855
1P
1>
1,
#612557
0P
0>
0,
#612814
1P
1>
1,
#613023
0P
0>
0,
#613326
1P
1>
1,
#613446
0P
0>
0,
#613716
0R
0@
0.
#614020
1R
1@
1.
#614114
0R
0@
0.
#614544
0U
0C
01
#614839
1Q
1?
1-
#614907
1R
1@
1.
#614953
1N
1<
1*
#615064
0R
0@
0.
#615093
0N
0<
0*
#615431
0O
0=
0+
#616080
0Q
0?
0-
#616113
1Q
1?
1-
#616338
0Q
0?
0-
#617251
1O
1=
1+
#617360
0O
0=
0+
#700000
1$
1(
1G
1K
#700690
1W
#700700
1g
#704184
1l
#704464
1*!
#704885
0$!
#705593
0%!
1,!
#713681
1R
1@
1.
#714890
1U
1C
11
#800000
0$
0(
1#
1'
0G
1F
0K
1J
#800690
1\
#800700
1c
#800796
0W
#800806
0g
#804154
1(!
#804244
0(!
#804388
0*!
#804401
1f
#804450
1r
#804494
1(!
#804509
0l
#804800
0(!
#805118
0t
#805230
1$!
#805286
0&!
#805374
1)!
#805446
0)!
#805714
1)!
#805839
0#!
1-!
#805889
1%!
0,!
#806002
0)!
#806664
0'!
1+!
#813919
0R
0@
0.
#814544
0U
0C
01
#814717
1T
1B
10
#814878
0T
0B
00
#815151
1Q
1?
1-
#815552
1S
1A
1/
#900000
1$
1(
1G
1K
#900690
1W
#900700
1g
#904154
1(!
#904184
1l
#904446
0(!
#904464
1*!
#904651
0i
#904885
0$!
#905367
1k
#905371
1&!
#905374
1)!
#905593
0%!
1,!
#905648
0)!
#906035
1n
#906054
1$!
#906537
1#!
0-!
#906538
1u
#906713
1%!
0,!
#906762
1'!
0+!
#907227
1"!
#913384
1P
1>
1,
#913681
1R
1@
1.
#914377
1T
1B
10
#914524
0T
0B
00
#914743
0R
0@
0.
#914890
1U
1C
11
#915714
0S
0A
0/
#916002
0Q
0?
0-
