classes/04_order/simulation/qsim/Ordenador.msim.vcd
$comment
	File created using the following command:
		vcd file Ordenador.msim.vcd -direction
$end
$date
	Thu May 23 16:43:05 2019
$end
$version
	ModelSim Version 10.5b
$end
$timescale
	1ps
$end

$scope module sistemacompleto_vhd_vec_tst $end
$var wire 1 ! A [15] $end
$var wire 1 " A [14] $end
$var wire 1 # A [13] $end
$var wire 1 $ A [12] $end
$var wire 1 % A [11] $end
$var wire 1 & A [10] $end
$var wire 1 ' A [9] $end
$var wire 1 ( A [8] $end
$var wire 1 ) A [7] $end
$var wire 1 * A [6] $end
$var wire 1 + A [5] $end
$var wire 1 , A [4] $end
$var wire 1 - A [3] $end
$var wire 1 . A [2] $end
$var wire 1 / A [1] $end
$var wire 1 0 A [0] $end
$var wire 1 1 ordOut [15] $end
$var wire 1 2 ordOut [14] $end
$var wire 1 3 ordOut [13] $end
$var wire 1 4 ordOut [12] $end
$var wire 1 5 ordOut [11] $end
$var wire 1 6 ordOut [10] $end
$var wire 1 7 ordOut [9] $end
$var wire 1 8 ordOut [8] $end
$var wire 1 9 ordOut [7] $end
$var wire 1 : ordOut [6] $end
$var wire 1 ; ordOut [5] $end
$var wire 1 < ordOut [4] $end
$var wire 1 = ordOut [3] $end
$var wire 1 > ordOut [2] $end
$var wire 1 ? ordOut [1] $end
$var wire 1 @ ordOut [0] $end

$scope module i1 $end
$var wire 1 A gnd $end
$var wire 1 B vcc $end
$var wire 1 C unknown $end
$var wire 1 D devoe $end
$var wire 1 E devclrn $end
$var wire 1 F devpor $end
$var wire 1 G ww_devoe $end
$var wire 1 H ww_devclrn $end
$var wire 1 I ww_devpor $end
$var wire 1 J ww_A [15] $end
$var wire 1 K ww_A [14] $end
$var wire 1 L ww_A [13] $end
$var wire 1 M ww_A [12] $end
$var wire 1 N ww_A [11] $end
$var wire 1 O ww_A [10] $end
$var wire 1 P ww_A [9] $end
$var wire 1 Q ww_A [8] $end
$var wire 1 R ww_A [7] $end
$var wire 1 S ww_A [6] $end
$var wire 1 T ww_A [5] $end
$var wire 1 U ww_A [4] $end
$var wire 1 V ww_A [3] $end
$var wire 1 W ww_A [2] $end
$var wire 1 X ww_A [1] $end
$var wire 1 Y ww_A [0] $end
$var wire 1 Z ww_ordOut [15] $end
$var wire 1 [ ww_ordOut [14] $end
$var wire 1 \ ww_ordOut [13] $end
$var wire 1 ] ww_ordOut [12] $end
$var wire 1 ^ ww_ordOut [11] $end
$var wire 1 _ ww_ordOut [10] $end
$var wire 1 ` ww_ordOut [9] $end
$var wire 1 a ww_ordOut [8] $end
$var wire 1 b ww_ordOut [7] $end
$var wire 1 c ww_ordOut [6] $end
$var wire 1 d ww_ordOut [5] $end
$var wire 1 e ww_ordOut [4] $end
$var wire 1 f ww_ordOut [3] $end
$var wire 1 g ww_ordOut [2] $end
$var wire 1 h ww_ordOut [1] $end
$var wire 1 i ww_ordOut [0] $end
$var wire 1 j \ordOut[0]~output_o\ $end
$var wire 1 k \ordOut[1]~output_o\ $end
$var wire 1 l \ordOut[2]~output_o\ $end
$var wire 1 m \ordOut[3]~output_o\ $end
$var wire 1 n \ordOut[4]~output_o\ $end
$var wire 1 o \ordOut[5]~output_o\ $end
$var wire 1 p \ordOut[6]~output_o\ $end
$var wire 1 q \ordOut[7]~output_o\ $end
$var wire 1 r \ordOut[8]~output_o\ $end
$var wire 1 s \ordOut[9]~output_o\ $end
$var wire 1 t \ordOut[10]~output_o\ $end
$var wire 1 u \ordOut[11]~output_o\ $end
$var wire 1 v \ordOut[12]~output_o\ $end
$var wire 1 w \ordOut[13]~output_o\ $end
$var wire 1 x \ordOut[14]~output_o\ $end
$var wire 1 y \ordOut[15]~output_o\ $end
$var wire 1 z \A[1]~input_o\ $end
$var wire 1 { \A[0]~input_o\ $end
$var wire 1 | \A[2]~input_o\ $end
$var wire 1 } \uC|u1|acumComp:2:acumx|Add0~0_combout\ $end
$var wire 1 ~ \A[3]~input_o\ $end
$var wire 1 !! \uC|u1|acumComp:3:acumx|Add0~0_combout\ $end
$var wire 1 "! \A[4]~input_o\ $end
$var wire 1 #! \A[5]~input_o\ $end
$var wire 1 $! \A[6]~input_o\ $end
$var wire 1 %! \uC|u1|acumComp:4:acumx|Add0~0_combout\ $end
$var wire 1 &! \uC|u1|acumComp:3:acumx|Add0~1_combout\ $end
$var wire 1 '! \uC|u1|acumComp:4:acumx|Add0~1_combout\ $end
$var wire 1 (! \uC|u1|acumComp:3:acumx|Add0~2_combout\ $end
$var wire 1 )! \uC|u1|acumComp:6:acumx|Add0~1\ $end
$var wire 1 *! \uC|u1|acumComp:6:acumx|Add0~3\ $end
$var wire 1 +! \uC|u1|acumComp:6:acumx|Add0~5\ $end
$var wire 1 ,! \uC|u1|acumComp:6:acumx|Add0~6_combout\ $end
$var wire 1 -! \uC|u1|acumComp:6:acumx|Add0~4_combout\ $end
$var wire 1 .! \A[10]~input_o\ $end
$var wire 1 /! \A[8]~input_o\ $end
$var wire 1 0! \A[7]~input_o\ $end
$var wire 1 1! \A[9]~input_o\ $end
$var wire 1 2! \uC|u1|acumComp:8:acumx|Add0~0_combout\ $end
$var wire 1 3! \uC|u1|acumComp:6:acumx|Add0~2_combout\ $end
$var wire 1 4! \uC|u1|acumComp:8:acumx|Add0~1_combout\ $end
$var wire 1 5! \uC|u1|acumComp:6:acumx|Add0~0_combout\ $end
$var wire 1 6! \uC|u1|acumComp:8:acumx|Add0~2_combout\ $end
$var wire 1 7! \uC|u1|acumComp:10:acumx|Add0~1\ $end
$var wire 1 8! \uC|u1|acumComp:10:acumx|Add0~3\ $end
$var wire 1 9! \uC|u1|acumComp:10:acumx|Add0~5\ $end
$var wire 1 :! \uC|u1|acumComp:10:acumx|Add0~6_combout\ $end
$var wire 1 ;! \uC|u1|acumComp:10:acumx|Add0~4_combout\ $end
$var wire 1 <! \uC|u1|acumComp:10:acumx|Add0~2_combout\ $end
$var wire 1 =! \A[11]~input_o\ $end
$var wire 1 >! \A[12]~input_o\ $end
$var wire 1 ?! \uC|u1|acumComp:11:acumx|Add0~0_combout\ $end
$var wire 1 @! \uC|u1|acumComp:11:acumx|Add0~1_combout\ $end
$var wire 1 A! \uC|u1|acumComp:10:acumx|Add0~0_combout\ $end
$var wire 1 B! \uC|u1|acumComp:12:acumx|Add0~1\ $end
$var wire 1 C! \uC|u1|acumComp:12:acumx|Add0~3\ $end
$var wire 1 D! \uC|u1|acumComp:12:acumx|Add0~5\ $end
$var wire 1 E! \uC|u1|acumComp:12:acumx|Add0~7\ $end
$var wire 1 F! \uC|u1|acumComp:12:acumx|Add0~8_combout\ $end
$var wire 1 G! \uC|u1|acumComp:12:acumx|Add0~6_combout\ $end
$var wire 1 H! \uC|u1|acumComp:12:acumx|Add0~4_combout\ $end
$var wire 1 I! \uC|u1|acumComp:12:acumx|Add0~2_combout\ $end
$var wire 1 J! \A[13]~input_o\ $end
$var wire 1 K! \A[14]~input_o\ $end
$var wire 1 L! \uC|u1|acumComp:13:acumx|Add0~0_combout\ $end
$var wire 1 M! \uC|u1|acumComp:13:acumx|Add0~1_combout\ $end
$var wire 1 N! \uC|u1|acumComp:12:acumx|Add0~0_combout\ $end
$var wire 1 O! \uC|u1|acumComp:14:acumx|Add0~1\ $end
$var wire 1 P! \uC|u1|acumComp:14:acumx|Add0~3\ $end
$var wire 1 Q! \uC|u1|acumComp:14:acumx|Add0~5\ $end
$var wire 1 R! \uC|u1|acumComp:14:acumx|Add0~7\ $end
$var wire 1 S! \uC|u1|acumComp:14:acumx|Add0~8_combout\ $end
$var wire 1 T! \uC|u1|acumComp:14:acumx|Add0~6_combout\ $end
$var wire 1 U! \uC|u1|acumComp:14:acumx|Add0~4_combout\ $end
$var wire 1 V! \uC|u1|acumComp:14:acumx|Add0~2_combout\ $end
$var wire 1 W! \uC|u1|acumComp:14:acumx|Add0~0_combout\ $end
$var wire 1 X! \A[15]~input_o\ $end
$var wire 1 Y! \uC|u1|acumComp:15:acumx|Add0~1\ $end
$var wire 1 Z! \uC|u1|acumComp:15:acumx|Add0~3\ $end
$var wire 1 [! \uC|u1|acumComp:15:acumx|Add0~5\ $end
$var wire 1 \! \uC|u1|acumComp:15:acumx|Add0~7\ $end
$var wire 1 ]! \uC|u1|acumComp:15:acumx|Add0~8_combout\ $end
$var wire 1 ^! \uC|u1|acumComp:15:acumx|Add0~2_combout\ $end
$var wire 1 _! \uC|u1|acumComp:15:acumx|Add0~0_combout\ $end
$var wire 1 `! \uC|u1|acumComp:15:acumx|Add0~6_combout\ $end
$var wire 1 a! \uC|u1|acumComp:15:acumx|Add0~4_combout\ $end
$var wire 1 b! \uC|u2|ordOut[4]~0_combout\ $end
$var wire 1 c! \uC|u2|ordOut[1]~1_combout\ $end
$var wire 1 d! \uC|u2|ordOut[2]~2_combout\ $end
$var wire 1 e! \uC|u2|ordOut[3]~3_combout\ $end
$var wire 1 f! \uC|u2|ordOut[4]~4_combout\ $end
$var wire 1 g! \uC|u2|ordOut[5]~5_combout\ $end
$var wire 1 h! \uC|u2|ordOut[6]~6_combout\ $end
$var wire 1 i! \uC|u2|ordOut[7]~7_combout\ $end
$var wire 1 j! \uC|u2|Equal15~0_combout\ $end
$var wire 1 k! \uC|u2|ordOut[9]~8_combout\ $end
$var wire 1 l! \uC|u2|ordOut[10]~9_combout\ $end
$var wire 1 m! \uC|u2|ordOut[11]~10_combout\ $end
$var wire 1 n! \uC|u2|Equal15~1_combout\ $end
$var wire 1 o! \uC|u2|ordOut[13]~11_combout\ $end
$var wire 1 p! \uC|u2|ordOut[14]~12_combout\ $end
$var wire 1 q! \uC|u2|Equal15~2_combout\ $end
$var wire 1 r! \uC|u2|ALT_INV_Equal15~2_combout\ $end
$var wire 1 s! \uC|u2|ALT_INV_ordOut[14]~12_combout\ $end
$var wire 1 t! \uC|u2|ALT_INV_ordOut[13]~11_combout\ $end
$var wire 1 u! \uC|u2|ALT_INV_Equal15~1_combout\ $end
$var wire 1 v! \uC|u2|ALT_INV_Equal15~0_combout\ $end
$var wire 1 w! \uC|u2|ALT_INV_ordOut[4]~4_combout\ $end
$upscope $end
$upscope $end
$enddefinitions $end
#0
$dumpvars
0A
1B
xC
1D
1E
1F
1G
1H
1I
0j
0k
0l
0m
0n
0o
0p
0q
0r
0s
0t
0u
0v
0w
0x
0y
xz
x{
x|
x}
x~
x!!
x"!
x#!
x$!
x%!
x&!
x'!
x(!
x)!
x*!
x+!
x,!
x-!
x.!
x/!
x0!
x1!
x2!
x3!
x4!
x5!
x6!
x7!
x8!
x9!
x:!
x;!
x<!
x=!
x>!
x?!
x@!
xA!
xB!
xC!
xD!
xE!
xF!
xG!
xH!
xI!
xJ!
xK!
xL!
xM!
xN!
xO!
xP!
xQ!
xR!
xS!
xT!
xU!
xV!
xW!
xX!
xY!
xZ!
x[!
x\!
x]!
x^!
x_!
x`!
xa!
xb!
xc!
xd!
xe!
xf!
xg!
xh!
xi!
xj!
xk!
xl!
xm!
xn!
xo!
xp!
xq!
xr!
xs!
xt!
xu!
xv!
xw!
0!
0"
0#
0$
0%
0&
1'
0(
1)
0*
0+
0,
0-
0.
0/
00
01
02
03
04
05
06
07
08
09
0:
0;
0<
0=
0>
0?
0@
0J
0K
0L
0M
0N
0O
1P
0Q
1R
0S
0T
0U
0V
0W
0X
0Y
0Z
0[
0\
0]
0^
0_
0`
0a
0b
0c
0d
0e
0f
0g
0h
0i
$end
#660
11!
#680
10!
#746
0>!
#756
0.!
0J!
0X!
#766
0K!
#776
0$!
0/!
0=!
#796
0|
0~
0#!
#806
0z
0{
0"!
#3392
xq
xb
x9
#3428
xp
xc
x:
#3593
xr
xa
x8
#3620
xw
x\
x3
#3865
xu
x^
x5
#3951
xv
x]
x4
#4050
xk
xh
x?
#4136
xx
x[
x2
#4154
xt
x_
x6
#4324
xo
xd
x;
#4400
xn
xe
x<
#4423
0?!
#4432
0!!
#4466
0L!
#4478
0}
#4604
0%!
#4614
0&!
#4615
0(!
#4620
0@!
#4820
xl
xg
x>
#5006
0'!
#5064
02!
#5079
0+!
#5083
xm
xf
x=
#5105
14!
#5161
06!
#5263
0)!
#5313
xy
xZ
x1
#5329
1*!
#5396
0M!
#5430
0B!
#5496
1C!
#5521
xs
x`
x7
#5562
0D!
#5591
0,!
#5628
1E!
#5714
05!
#5775
03!
#5781
0Y!
#5841
0-!
#5847
1Z!
#5913
0[!
#5979
1\!
#6047
0O!
#6113
1P!
#6140
0F!
#6179
0Q!
#6245
1R!
#6275
07!
#6806
0A!
#6835
1<!
#6870
09!
#6904
18!
#7313
0S!
#7382
0:!
#7416
0;!
#7506
1I!
#7507
0N!
#7511
xj
xi
x@
#8094
0G!
#8117
0H!
#8689
0W!
#8859
1V!
#9284
0U!
#9285
0T!
#10648
0]!
#11615
0_!
#11899
0a!
#12633
1^!
#13016
0`!
#14768
0b!
#15975
1f!
0w!
#16298
0c!
#16299
0e!
0d!
#16688
0g!
#17691
0q!
1r!
#17738
0p!
0l!
1s!
#17752
1n!
0u!
#17755
1j!
0v!
#17911
0i!
0h!
#18091
0j
0i
0@
#18441
1o!
0t!
#18663
0m!
#18666
0k!
#20278
0k
0h
0?
#20417
0n
0e
0<
#20927
0o
0d
0;
#20995
0l
0g
0>
#21216
0q
0b
09
#21230
0m
0f
0=
#21257
0p
0c
0:
#21390
0r
0a
08
#21745
0v
0]
04
#21774
0t
0_
06
#21797
1x
1[
12
#22103
0w
0\
03
#22412
0u
0^
05
#22923
1y
1Z
11
#24144
0s
0`
07
